airport_name;airport_iata;airport_city;airport_country
Blaise Diagne International Airport;DSS;Thies;Senegal
Félix-Houphouët-Boigny International Airport;ABJ;Abidjan;Ivory Coast
Tunis-Carthage International Airport;TUN;Tunis;Tunisia
Douala International Airport;DLA;Douala;Cameroon